%YAML 1.1
%TAG !u! tag:unity3d.com,2011:
--- !u!74 &7400000
AnimationClip:
  m_ObjectHideFlags: 0
  m_PrefabParentObject: {fileID: 0}
  m_PrefabInternal: {fileID: 0}
  m_Name: ninja_chica_jump
  serializedVersion: 6
  m_Legacy: 0
  m_Compressed: 0
  m_UseHighQualityCurve: 1
  m_RotationCurves: []
  m_CompressedRotationCurves: []
  m_EulerCurves: []
  m_PositionCurves: []
  m_ScaleCurves: []
  m_FloatCurves: []
  m_PPtrCurves:
  - curve:
    - time: 0
      value: {fileID: 21300000, guid: a245251675ea5df489b0601c587b706b, type: 3}
    - time: 0.083333336
      value: {fileID: 21300000, guid: 2ffdb3026407ef24d8856b6d11aacaba, type: 3}
    - time: 0.16666667
      value: {fileID: 21300000, guid: 98bc2037fc4214444be51e39b7297fec, type: 3}
    - time: 0.25
      value: {fileID: 21300000, guid: a2aff6615216e5f46a0a3208d697e2ae, type: 3}
    - time: 0.33333334
      value: {fileID: 21300000, guid: 3e899fed2a1a75c4ea69df4eb498314b, type: 3}
    - time: 0.41666666
      value: {fileID: 21300000, guid: a570135ad5b1a1f4e830e62dc2d65440, type: 3}
    - time: 0.5
      value: {fileID: 21300000, guid: 9a81b39cee809ee4d8e55ef919b05039, type: 3}
    - time: 0.5833333
      value: {fileID: 21300000, guid: d96b389747e761c4dab0c972a0bcb034, type: 3}
    - time: 0.6666667
      value: {fileID: 21300000, guid: 4a0eeb4f86c82a94eb07d88620f18202, type: 3}
    - time: 0.75
      value: {fileID: 21300000, guid: 22a1775f464a55845962b2989e44e008, type: 3}
    attribute: m_Sprite
    path: 
    classID: 212
    script: {fileID: 0}
  m_SampleRate: 12
  m_WrapMode: 0
  m_Bounds:
    m_Center: {x: 0, y: 0, z: 0}
    m_Extent: {x: 0, y: 0, z: 0}
  m_ClipBindingConstant:
    genericBindings:
    - serializedVersion: 2
      path: 0
      attribute: 0
      script: {fileID: 0}
      typeID: 212
      customType: 23
      isPPtrCurve: 1
    pptrCurveMapping:
    - {fileID: 21300000, guid: a245251675ea5df489b0601c587b706b, type: 3}
    - {fileID: 21300000, guid: 2ffdb3026407ef24d8856b6d11aacaba, type: 3}
    - {fileID: 21300000, guid: 98bc2037fc4214444be51e39b7297fec, type: 3}
    - {fileID: 21300000, guid: a2aff6615216e5f46a0a3208d697e2ae, type: 3}
    - {fileID: 21300000, guid: 3e899fed2a1a75c4ea69df4eb498314b, type: 3}
    - {fileID: 21300000, guid: a570135ad5b1a1f4e830e62dc2d65440, type: 3}
    - {fileID: 21300000, guid: 9a81b39cee809ee4d8e55ef919b05039, type: 3}
    - {fileID: 21300000, guid: d96b389747e761c4dab0c972a0bcb034, type: 3}
    - {fileID: 21300000, guid: 4a0eeb4f86c82a94eb07d88620f18202, type: 3}
    - {fileID: 21300000, guid: 22a1775f464a55845962b2989e44e008, type: 3}
  m_AnimationClipSettings:
    serializedVersion: 2
    m_AdditiveReferencePoseClip: {fileID: 0}
    m_AdditiveReferencePoseTime: 0
    m_StartTime: 0
    m_StopTime: 0.8333333
    m_OrientationOffsetY: 0
    m_Level: 0
    m_CycleOffset: 0
    m_HasAdditiveReferencePose: 0
    m_LoopTime: 1
    m_LoopBlend: 0
    m_LoopBlendOrientation: 0
    m_LoopBlendPositionY: 0
    m_LoopBlendPositionXZ: 0
    m_KeepOriginalOrientation: 0
    m_KeepOriginalPositionY: 1
    m_KeepOriginalPositionXZ: 0
    m_HeightFromFeet: 0
    m_Mirror: 0
  m_EditorCurves: []
  m_EulerEditorCurves: []
  m_HasGenericRootTransform: 0
  m_HasMotionFloatCurves: 0
  m_GenerateMotionCurves: 0
  m_Events: []
