%YAML 1.1
%TAG !u! tag:unity3d.com,2011:
--- !u!74 &7400000
AnimationClip:
  m_ObjectHideFlags: 0
  m_PrefabParentObject: {fileID: 0}
  m_PrefabInternal: {fileID: 0}
  m_Name: run
  serializedVersion: 6
  m_Legacy: 0
  m_Compressed: 0
  m_UseHighQualityCurve: 1
  m_RotationCurves: []
  m_CompressedRotationCurves: []
  m_EulerCurves: []
  m_PositionCurves: []
  m_ScaleCurves: []
  m_FloatCurves: []
  m_PPtrCurves:
  - curve:
    - time: 0
      value: {fileID: 21300000, guid: 0e5256f414b250d4390e616503ca7c96, type: 3}
    - time: 0.083333336
      value: {fileID: 21300000, guid: 4ba0e29eba147ce449020347e7d049c8, type: 3}
    - time: 0.16666667
      value: {fileID: 21300000, guid: 4dad9094c6ef82b4ea132cd062fe22f2, type: 3}
    - time: 0.25
      value: {fileID: 21300000, guid: 34a542310d6b31c46b4c63bbfaa62258, type: 3}
    - time: 0.33333334
      value: {fileID: 21300000, guid: 09bf1bf3fd3457042bc5aeb20a24dae9, type: 3}
    - time: 0.41666666
      value: {fileID: 21300000, guid: dd01f120ccfe97c44ba224fab384c4e8, type: 3}
    - time: 0.5
      value: {fileID: 21300000, guid: 2c5366b3dfc38a34ca5e93b306a4fbbb, type: 3}
    - time: 0.5833333
      value: {fileID: 21300000, guid: be4e877c71da2db42865133316b2115f, type: 3}
    - time: 0.6666667
      value: {fileID: 21300000, guid: 8358f371292fb6c46a138bebcaa28152, type: 3}
    - time: 0.75
      value: {fileID: 21300000, guid: 2bb06a4a389e9e944865a6e38496d7be, type: 3}
    attribute: m_Sprite
    path: 
    classID: 212
    script: {fileID: 0}
  m_SampleRate: 12
  m_WrapMode: 0
  m_Bounds:
    m_Center: {x: 0, y: 0, z: 0}
    m_Extent: {x: 0, y: 0, z: 0}
  m_ClipBindingConstant:
    genericBindings:
    - serializedVersion: 2
      path: 0
      attribute: 0
      script: {fileID: 0}
      typeID: 212
      customType: 23
      isPPtrCurve: 1
    pptrCurveMapping:
    - {fileID: 21300000, guid: 0e5256f414b250d4390e616503ca7c96, type: 3}
    - {fileID: 21300000, guid: 4ba0e29eba147ce449020347e7d049c8, type: 3}
    - {fileID: 21300000, guid: 4dad9094c6ef82b4ea132cd062fe22f2, type: 3}
    - {fileID: 21300000, guid: 34a542310d6b31c46b4c63bbfaa62258, type: 3}
    - {fileID: 21300000, guid: 09bf1bf3fd3457042bc5aeb20a24dae9, type: 3}
    - {fileID: 21300000, guid: dd01f120ccfe97c44ba224fab384c4e8, type: 3}
    - {fileID: 21300000, guid: 2c5366b3dfc38a34ca5e93b306a4fbbb, type: 3}
    - {fileID: 21300000, guid: be4e877c71da2db42865133316b2115f, type: 3}
    - {fileID: 21300000, guid: 8358f371292fb6c46a138bebcaa28152, type: 3}
    - {fileID: 21300000, guid: 2bb06a4a389e9e944865a6e38496d7be, type: 3}
  m_AnimationClipSettings:
    serializedVersion: 2
    m_AdditiveReferencePoseClip: {fileID: 0}
    m_AdditiveReferencePoseTime: 0
    m_StartTime: 0
    m_StopTime: 0.8333333
    m_OrientationOffsetY: 0
    m_Level: 0
    m_CycleOffset: 0
    m_HasAdditiveReferencePose: 0
    m_LoopTime: 1
    m_LoopBlend: 0
    m_LoopBlendOrientation: 0
    m_LoopBlendPositionY: 0
    m_LoopBlendPositionXZ: 0
    m_KeepOriginalOrientation: 0
    m_KeepOriginalPositionY: 1
    m_KeepOriginalPositionXZ: 0
    m_HeightFromFeet: 0
    m_Mirror: 0
  m_EditorCurves: []
  m_EulerEditorCurves: []
  m_HasGenericRootTransform: 0
  m_HasMotionFloatCurves: 0
  m_GenerateMotionCurves: 0
  m_Events: []
