%YAML 1.1
%TAG !u! tag:unity3d.com,2011:
--- !u!74 &7400000
AnimationClip:
  m_ObjectHideFlags: 0
  m_PrefabParentObject: {fileID: 0}
  m_PrefabInternal: {fileID: 0}
  m_Name: zombie_walk
  serializedVersion: 6
  m_Legacy: 0
  m_Compressed: 0
  m_UseHighQualityCurve: 1
  m_RotationCurves: []
  m_CompressedRotationCurves: []
  m_EulerCurves: []
  m_PositionCurves: []
  m_ScaleCurves: []
  m_FloatCurves: []
  m_PPtrCurves:
  - curve:
    - time: 0
      value: {fileID: 21300000, guid: a23022d998ce55c4f9521f17c3b1cc1d, type: 3}
    - time: 0.083333336
      value: {fileID: 21300000, guid: c9faa7047c187cb45a005278bc0b5d93, type: 3}
    - time: 0.16666667
      value: {fileID: 21300000, guid: 7213b9c8c54ee9c4892a0ba2fddf7882, type: 3}
    - time: 0.25
      value: {fileID: 21300000, guid: e1cb2290f3f2829429401cfb5a1d8cc6, type: 3}
    - time: 0.33333334
      value: {fileID: 21300000, guid: 2c995635866034f41853bc83dace7ab7, type: 3}
    - time: 0.41666666
      value: {fileID: 21300000, guid: cf41bc03d796f5045903af9dad66b676, type: 3}
    - time: 0.5
      value: {fileID: 21300000, guid: ca02e8fdf0b9ec6479970e1646d8ad17, type: 3}
    - time: 0.5833333
      value: {fileID: 21300000, guid: 42a80d9d830adeb418fd30760dd65fe0, type: 3}
    - time: 0.6666667
      value: {fileID: 21300000, guid: 6cab6d6b4a8ab954ea18e0162d3d4919, type: 3}
    - time: 0.75
      value: {fileID: 21300000, guid: 7777493cc74706f4e98d2b8ce1dec918, type: 3}
    attribute: m_Sprite
    path: 
    classID: 212
    script: {fileID: 0}
  m_SampleRate: 12
  m_WrapMode: 0
  m_Bounds:
    m_Center: {x: 0, y: 0, z: 0}
    m_Extent: {x: 0, y: 0, z: 0}
  m_ClipBindingConstant:
    genericBindings:
    - serializedVersion: 2
      path: 0
      attribute: 0
      script: {fileID: 0}
      typeID: 212
      customType: 23
      isPPtrCurve: 1
    pptrCurveMapping:
    - {fileID: 21300000, guid: a23022d998ce55c4f9521f17c3b1cc1d, type: 3}
    - {fileID: 21300000, guid: c9faa7047c187cb45a005278bc0b5d93, type: 3}
    - {fileID: 21300000, guid: 7213b9c8c54ee9c4892a0ba2fddf7882, type: 3}
    - {fileID: 21300000, guid: e1cb2290f3f2829429401cfb5a1d8cc6, type: 3}
    - {fileID: 21300000, guid: 2c995635866034f41853bc83dace7ab7, type: 3}
    - {fileID: 21300000, guid: cf41bc03d796f5045903af9dad66b676, type: 3}
    - {fileID: 21300000, guid: ca02e8fdf0b9ec6479970e1646d8ad17, type: 3}
    - {fileID: 21300000, guid: 42a80d9d830adeb418fd30760dd65fe0, type: 3}
    - {fileID: 21300000, guid: 6cab6d6b4a8ab954ea18e0162d3d4919, type: 3}
    - {fileID: 21300000, guid: 7777493cc74706f4e98d2b8ce1dec918, type: 3}
  m_AnimationClipSettings:
    serializedVersion: 2
    m_AdditiveReferencePoseClip: {fileID: 0}
    m_AdditiveReferencePoseTime: 0
    m_StartTime: 0
    m_StopTime: 0.8333333
    m_OrientationOffsetY: 0
    m_Level: 0
    m_CycleOffset: 0
    m_HasAdditiveReferencePose: 0
    m_LoopTime: 1
    m_LoopBlend: 0
    m_LoopBlendOrientation: 0
    m_LoopBlendPositionY: 0
    m_LoopBlendPositionXZ: 0
    m_KeepOriginalOrientation: 0
    m_KeepOriginalPositionY: 1
    m_KeepOriginalPositionXZ: 0
    m_HeightFromFeet: 0
    m_Mirror: 0
  m_EditorCurves: []
  m_EulerEditorCurves: []
  m_HasGenericRootTransform: 0
  m_HasMotionFloatCurves: 0
  m_GenerateMotionCurves: 0
  m_Events: []
