%YAML 1.1
%TAG !u! tag:unity3d.com,2011:
--- !u!74 &7400000
AnimationClip:
  m_ObjectHideFlags: 0
  m_PrefabParentObject: {fileID: 0}
  m_PrefabInternal: {fileID: 0}
  m_Name: zombie_dead
  serializedVersion: 6
  m_Legacy: 0
  m_Compressed: 0
  m_UseHighQualityCurve: 1
  m_RotationCurves: []
  m_CompressedRotationCurves: []
  m_EulerCurves: []
  m_PositionCurves: []
  m_ScaleCurves: []
  m_FloatCurves: []
  m_PPtrCurves:
  - curve:
    - time: 0
      value: {fileID: 21300000, guid: 0d9b6bdc0f023e249b33170656ce8ea2, type: 3}
    - time: 0.083333336
      value: {fileID: 21300000, guid: 933886108575b694b82fdb3f85425053, type: 3}
    - time: 0.16666667
      value: {fileID: 21300000, guid: 4af916eca6b153245a31a2ced1289ba0, type: 3}
    - time: 0.25
      value: {fileID: 21300000, guid: f97b5be9591551c46b45d20f64ef7310, type: 3}
    - time: 0.33333334
      value: {fileID: 21300000, guid: e47a1fb63c4a707418fe5bd80ff3e01e, type: 3}
    - time: 0.41666666
      value: {fileID: 21300000, guid: 5ebce2e0d07736f40a7fcc132bd45451, type: 3}
    - time: 0.5
      value: {fileID: 21300000, guid: e41a6177c4b24d546ae26fe103dee7bb, type: 3}
    - time: 0.5833333
      value: {fileID: 21300000, guid: 1019ca56fc7f85746a30d7b7eb948d74, type: 3}
    - time: 0.6666667
      value: {fileID: 21300000, guid: f848e2eb0212e4e48ba47404fb658840, type: 3}
    - time: 0.75
      value: {fileID: 21300000, guid: e819c49c6976b174ca608b77419067ae, type: 3}
    - time: 0.8333333
      value: {fileID: 21300000, guid: 7c00d3ff4444a284586f5f02c7f103b1, type: 3}
    - time: 0.9166667
      value: {fileID: 21300000, guid: 69abf809d3a9d7e44812a1ef153d61d0, type: 3}
    attribute: m_Sprite
    path: 
    classID: 212
    script: {fileID: 0}
  m_SampleRate: 12
  m_WrapMode: 0
  m_Bounds:
    m_Center: {x: 0, y: 0, z: 0}
    m_Extent: {x: 0, y: 0, z: 0}
  m_ClipBindingConstant:
    genericBindings:
    - serializedVersion: 2
      path: 0
      attribute: 0
      script: {fileID: 0}
      typeID: 212
      customType: 23
      isPPtrCurve: 1
    pptrCurveMapping:
    - {fileID: 21300000, guid: 0d9b6bdc0f023e249b33170656ce8ea2, type: 3}
    - {fileID: 21300000, guid: 933886108575b694b82fdb3f85425053, type: 3}
    - {fileID: 21300000, guid: 4af916eca6b153245a31a2ced1289ba0, type: 3}
    - {fileID: 21300000, guid: f97b5be9591551c46b45d20f64ef7310, type: 3}
    - {fileID: 21300000, guid: e47a1fb63c4a707418fe5bd80ff3e01e, type: 3}
    - {fileID: 21300000, guid: 5ebce2e0d07736f40a7fcc132bd45451, type: 3}
    - {fileID: 21300000, guid: e41a6177c4b24d546ae26fe103dee7bb, type: 3}
    - {fileID: 21300000, guid: 1019ca56fc7f85746a30d7b7eb948d74, type: 3}
    - {fileID: 21300000, guid: f848e2eb0212e4e48ba47404fb658840, type: 3}
    - {fileID: 21300000, guid: e819c49c6976b174ca608b77419067ae, type: 3}
    - {fileID: 21300000, guid: 7c00d3ff4444a284586f5f02c7f103b1, type: 3}
    - {fileID: 21300000, guid: 69abf809d3a9d7e44812a1ef153d61d0, type: 3}
  m_AnimationClipSettings:
    serializedVersion: 2
    m_AdditiveReferencePoseClip: {fileID: 0}
    m_AdditiveReferencePoseTime: 0
    m_StartTime: 0
    m_StopTime: 1
    m_OrientationOffsetY: 0
    m_Level: 0
    m_CycleOffset: 0
    m_HasAdditiveReferencePose: 0
    m_LoopTime: 1
    m_LoopBlend: 0
    m_LoopBlendOrientation: 0
    m_LoopBlendPositionY: 0
    m_LoopBlendPositionXZ: 0
    m_KeepOriginalOrientation: 0
    m_KeepOriginalPositionY: 1
    m_KeepOriginalPositionXZ: 0
    m_HeightFromFeet: 0
    m_Mirror: 0
  m_EditorCurves: []
  m_EulerEditorCurves: []
  m_HasGenericRootTransform: 0
  m_HasMotionFloatCurves: 0
  m_GenerateMotionCurves: 0
  m_Events: []
